{
  "collectionName": "components_shared_embeds",
  "info": {
    "displayName": "embed",
    "icon": "code",
    "description": ""
  },
  "options": {},
  "attributes": {
    "title": {
      "type": "string"
    },
    "text": {
      "type": "richtext"
    },
    "source": {
      "type": "string"
    },
    "variant": {
      "type": "enumeration",
      "enum": ["gecentreerd", "rechts", "links"],
      "default": "gecentreerd",
      "required": true
    },
    "color": {
      "type": "enumeration",
      "enum": [
        "geel",
        "groen",
        "lichtblauw",
        "lichtgroen",
        "oranje",
        "paars",
        "roze"
      ],
      "default": "lichtblauw"
    },
    "contentLink": {
      "type": "string",
      "required": true
    },
    "fixedHeight": {
      "type": "integer",
      "min": 0
    }
  }
}
